Migrating from Facets to mfrmr • mfrmr
…
#>    Reliability / fit / residual PCA          no
#>                Category functioning     partial
#>     Bias / DIF / interaction checks          no
#>         Draft reporting / checklist          no
#>                                                                CompanionOutput
#>                                                                   summary(fit)
#>                                               summary(describe_mfrm_data(...))
#>                                                    summary(diagnose_mfrm(fit))
#>  rating_scale_table() / category_structure_report() / category_curves_report()
#>         summary(estimate_bias(...)) / analyze_dff() / related bundle summaries
#>                        reporting_checklist() / summary(build_apa_outputs(...))
head(run$fair_average)
#> $raw_by_facet
#> $raw_by_facet$Person
#> # A tibble: 307 × 18
#>    TotalScore TotalCount WeightdScore WeightdCount ObservedAverage FairM FairZ
#>         <int>      <int>        <dbl>        <dbl>           <dbl> <dbl> <dbl>
#>  1         24          6           24            6            4     4.00  4.00
#>  2         24          6           24            6            4     4.00  4.00
#>  3         24          6           24            6            4     4.00  4.00
#>  4         24          6           24            6            4     4.00  4.00
#>  5         24          6           24            6            4     4.00  4.00
#>  6         24          6           24            6            4     4.00  4.00
#>  7         23          6           23            6            3.83  3.97  3.97
#>  8         23          6           23            6            3.83  3.94  3.94
#>  9         23          6           23            6            3.83  3.89  3.89
#> 10         23          6           23            6            3.83  3.88  3.88
#> # ℹ 297 more rows
#> # ℹ 11 more variables: Measure <dbl>, ModelSE <dbl>, RealSE <dbl>,
#> #   InfitMnSq <dbl>, InfitZStd <dbl>, OutfitMnSq <dbl>, OutfitZStd <dbl>,
#> #   PtMeaCorr <dbl>, Anchor <chr>, Status <chr>, Level <chr>
…
